<?xml version='1.0' encoding='UTF-8'?>
<glyph name="ghain-ar.medi" format="2">
  <advance width="1200"/>
  <unicode hex="FED0"/>
  <outline>
    <component base="ain-ar.medi"/>
    <component base="dotabove-ar" xOffset="10" yOffset="273"/>
  </outline>
  <lib>
    <dict>
      <key>public.markColor</key>
      <string>0.98,0.36,0.67,1</string>
    </dict>
  </lib>
</glyph>
