<?xml version='1.0' encoding='UTF-8'?>
<glyph name="meem-ar.medi" format="2">
  <advance width="1200"/>
  <unicode hex="FEE4"/>
  <anchor x="622" y="-141" name="bottom"/>
  <anchor x="622" y="-26" name="bottom.dot"/>
  <anchor x="626" y="1104" name="top"/>
  <anchor x="623" y="804" name="top.dot"/>
  <outline>
    <contour>
      <point x="-18" y="-10" type="curve" smooth="yes"/>
      <point x="133" y="-10"/>
      <point x="212" y="24"/>
      <point x="261" y="141" type="curve"/>
      <point x="299" y="141" type="line"/>
      <point x="307" y="155"/>
      <point x="314" y="170"/>
      <point x="321" y="186" type="curve"/>
      <point x="270" y="225" type="line"/>
      <point x="270" y="86"/>
      <point x="336" y="-10"/>
      <point x="582" y="-10" type="curve" smooth="yes"/>
      <point x="783" y="-10"/>
      <point x="852" y="32"/>
      <point x="883" y="122" type="curve"/>
      <point x="941" y="122" type="line"/>
      <point x="882" y="330" type="line"/>
      <point x="784" y="292"/>
      <point x="712" y="285"/>
      <point x="605" y="285" type="curve" smooth="yes"/>
      <point x="479" y="285"/>
      <point x="461" y="308"/>
      <point x="461" y="342" type="curve" smooth="yes"/>
      <point x="461" y="401"/>
      <point x="520" y="475"/>
      <point x="599" y="475" type="curve" smooth="yes"/>
      <point x="658" y="475"/>
      <point x="712" y="441"/>
      <point x="780" y="327" type="curve" smooth="yes"/>
      <point x="912" y="108"/>
      <point x="961" y="-10"/>
      <point x="1188" y="-10" type="curve" smooth="yes"/>
      <point x="1236" y="-10"/>
      <point x="1275" y="21"/>
      <point x="1275" y="135" type="curve" smooth="yes"/>
      <point x="1275" y="236"/>
      <point x="1251" y="285"/>
      <point x="1200" y="285" type="curve" smooth="yes"/>
      <point x="1106" y="285"/>
      <point x="1054" y="305"/>
      <point x="967" y="442" type="curve" smooth="yes"/>
      <point x="834" y="653"/>
      <point x="744" y="748"/>
      <point x="614" y="748" type="curve" smooth="yes"/>
      <point x="480" y="748"/>
      <point x="386" y="624"/>
      <point x="228" y="364" type="curve" smooth="yes"/>
      <point x="188" y="298"/>
      <point x="143" y="285"/>
      <point x="0" y="285" type="curve" smooth="yes"/>
      <point x="-47" y="285"/>
      <point x="-70" y="171"/>
      <point x="-70" y="115" type="curve" smooth="yes"/>
      <point x="-70" y="26"/>
      <point x="-54" y="-10"/>
    </contour>
  </outline>
  <lib>
    <dict>
      <key>public.markColor</key>
      <string>0.98,0.36,0.67,1</string>
    </dict>
  </lib>
</glyph>
